<?xml version="1.0" encoding="utf-8"?>
<!-- Generator: Adobe Illustrator 22.0.1, SVG Export Plug-In . SVG Version: 6.00 Build 0)  -->
<svg version="1.1" id="Capa_1" xmlns="http://www.w3.org/2000/svg" xmlns:xlink="http://www.w3.org/1999/xlink" x="0px" y="0px"
	 viewBox="0 0 300 300" style="enable-background:new 0 0 300 300;" xml:space="preserve">
<style type="text/css">
	.st0{fill:#A7927D;}
</style>
<g>
	<g>
		<path class="st0" d="M149.7,286.3c-75.2,0-136.3-61.1-136.3-136.3c0-75.2,61.1-136.3,136.3-136.3S286,74.8,286,150
			C286,225.2,224.8,286.3,149.7,286.3z M149.7,16c-73.9,0-134,60.1-134,134c0,73.9,60.1,134,134,134c73.9,0,134-60.1,134-134
			C283.6,76.1,223.5,16,149.7,16z"/>
	</g>
	<g>
		<path class="st0" d="M29.6,148.1c-0.6,0-1.2-0.5-1.2-1.2c0-65.3,53.2-118.5,118.5-118.5c0.6,0,1.2,0.5,1.2,1.2
			c0,0.6-0.5,1.2-1.2,1.2c-64.1,0-116.2,52.1-116.2,116.2C30.7,147.6,30.2,148.1,29.6,148.1z"/>
	</g>
	<g>
		<path class="st0" d="M149.7,300c-82.7,0-150-67.3-150-150S66.9,0,149.7,0c82.7,0,150,67.3,150,150S232.4,300,149.7,300z
			 M149.7,2.3C68.2,2.3,2,68.6,2,150s66.2,147.7,147.7,147.7S297.3,231.4,297.3,150S231.1,2.3,149.7,2.3z"/>
	</g>
</g>
<g>
	<g>
		<g>
			<g>
				<path class="st0" d="M163.5,154.9c0,2.8-0.1,5.5-0.4,7.9c-0.5,5.9-1.8,11.7-3.7,17.3l4.6,1.6c2-6,3.3-12.1,3.9-18.4
					c0.3-2.6,0.4-5.5,0.4-8.4H163.5L163.5,154.9z"/>
			</g>
		</g>
	</g>
	<g>
		<g>
			<g>
				<path class="st0" d="M157.5,185.2c-0.7,1.6-1.5,3.3-2.5,5l4.2,2.3c1-1.8,1.9-3.7,2.7-5.4L157.5,185.2z"/>
			</g>
		</g>
	</g>
	<g>
		<g>
			<g>
				<path class="st0" d="M121.3,111.4c-15,0-27.7,19.9-27.7,43.5s12.7,43.5,27.7,43.5s27.7-19.9,27.7-43.5S136.3,111.4,121.3,111.4z
					 M121.3,193.6c-12.2,0-22.9-18.1-22.9-38.7s10.7-38.7,22.9-38.7s22.9,18.1,22.9,38.7S133.5,193.6,121.3,193.6z"/>
			</g>
		</g>
	</g>
	<g>
		<g>
			<g>
				<path class="st0" d="M120,145.2c-4.1,0-7.3,4.2-7.3,9.7s3.2,9.7,7.3,9.7c4.1,0,7.3-4.2,7.3-9.7C127.2,149.5,124,145.2,120,145.2
					z M120,159.7c-1,0-2.4-1.9-2.4-4.8c0-2.9,1.5-4.8,2.4-4.8c1,0,2.4,1.9,2.4,4.8C122.4,157.8,120.9,159.7,120,159.7z"/>
			</g>
		</g>
	</g>
	<g>
		<g>
			<g>
				<path class="st0" d="M121.4,209.1L121.4,209.1c0,0-0.1,0-0.1,0c-21.2,0-38.4-24.3-38.4-54.2c0-29.9,17.2-54.2,38.4-54.2
					c0.2,0,0.5,0,0.7,0l0.4,0c32,0,58.5,33.3,68.4,47.6c2.1,3,5.5,4.8,9.2,4.8c1.9,0,3.6,0.9,4.7,2.4h3.6l0.2-0.2
					c4.7-4.7,12.1-5.1,17.2-1c3.6,2.8,4.7,7.8,2.7,11.8c2.2,4,1.5,8.9-1.8,12.1c-4.9,4.9-12.8,5.3-18.2,1h-3.7
					c-1.1,1.5-2.8,2.4-4.7,2.4h-2.4c-2.6,0-5.3,0.9-7.3,2.6c-19,15.9-43.1,24.7-67.9,24.8L121.4,209.1z M121.3,102.7
					c-20.1,0-36.4,23.4-36.4,52.2s16.3,52.2,36.4,52.2c0.4,0,0.7,0,1,0l1.1-0.2v0.2c24-0.3,47.2-8.9,65.6-24.3
					c2.4-2,5.4-3.1,8.5-3.1c0,0,0,0,0.1,0h2.4c1.4,0,2.6-0.7,3.3-1.9l0.3-0.5h5.5l0.3,0.2c4.6,3.9,11.6,3.6,15.8-0.7
					c2.7-2.7,3.2-6.9,1.2-10.2l-0.9-1.5h1.2c1.5-3.2,0.7-7.1-2.2-9.3c-4.4-3.5-10.7-3.1-14.6,0.8l-0.8,0.8h-5.5l-0.3-0.5
					c-0.7-1.2-1.9-1.9-3.3-1.9c-4.3,0-8.4-2.1-10.8-5.7c-9.6-13.9-35.2-46-65.8-46.7v0.1l-1.1,0C122,102.7,121.6,102.7,121.3,102.7z
					 M121.5,204.3c-0.1,0-0.1,0-0.2,0c-18.5,0-33.5-22.1-33.5-49.4c0-27.2,15-49.4,33.5-49.4h0.2c0.2,0,0.4,0,0.7,0
					c18.1,0.8,32.6,22.9,32.6,49.3c0,26.4-14.7,48.5-32.7,49.3C121.9,204.3,121.7,204.3,121.5,204.3z M121.6,107.5
					C121.6,107.5,121.5,107.5,121.6,107.5l-0.3,0c-17.4,0-31.5,21.3-31.5,47.4c0,26.1,14.1,47.4,31.5,47.4c0.3,0,0.5,0,0.7,0l0.1,0
					c17-0.8,30.8-22,30.8-47.4c0-25.4-13.7-46.6-30.6-47.3c-0.1,0-0.2,0-0.3,0C121.8,107.5,121.7,107.5,121.6,107.5z M135,203.6
					l3.3-2.5c12-9,19.4-26.7,19.4-46.2c0-17-5.7-32.9-15.3-42.7l-4-4l5.1,2.4c19.9,9.4,35.7,29.3,43.4,40.4c3,4.3,7.9,6.9,13.2,6.9
					l1,0v18.9h-3.4c0,0,0,0-0.1,0c-3.8,0-7.5,1.3-10.4,3.8c-13.8,11.5-30.4,19.2-48.1,22.2L135,203.6z M147.3,114.9
					c7.8,10.2,12.4,24.7,12.4,40c0,18.4-6.5,35.4-17.2,45.3c15.9-3.4,30.9-10.6,43.4-21.1c3.3-2.8,7.4-4.3,11.7-4.3c0,0,0,0,0.1,0
					h1.4v-15c-5.5-0.3-10.6-3.1-13.8-7.7C178.3,142.2,164.5,124.8,147.3,114.9z M216.9,177.4c-2.2,0-4.5-0.8-6.2-2.5
					c-0.3-0.3-0.6-0.4-1-0.4h-5.8v-14.1h5.8c0.4,0,0.7-0.1,1-0.4l1.2-1.2c3-3,7.6-3.2,10.9-0.6c1,0.8,1.6,1.9,1.7,3.2
					c0.1,1.3-0.2,2.5-1,3.5c-0.1,0.1-0.2,0.3-0.3,0.4c-0.6,0.6-0.6,1.5,0,2c1,1,1.6,2.4,1.6,3.8c0,1.4-0.6,2.8-1.6,3.8l0,0
					C221.4,176.5,219.2,177.4,216.9,177.4z M205.8,172.4h3.8c0.9,0,1.8,0.4,2.4,1c2.7,2.6,7,2.6,9.7,0c0.6-0.7,1-1.5,1-2.4
					c0-0.9-0.4-1.8-1-2.4c-1.3-1.3-1.3-3.5,0-4.8c0.1-0.1,0.1-0.1,0.2-0.2c0.9-1.2,0.8-2.9-0.4-3.8c-2.5-2-6-1.8-8.2,0.4l-1.2,1.2
					c-0.6,0.6-1.5,1-2.4,1h-3.8V172.4z"/>
			</g>
		</g>
	</g>
</g>
</svg>
