<?xml version="1.0" encoding="utf-8"?>
<!-- Generator: Adobe Illustrator 22.0.1, SVG Export Plug-In . SVG Version: 6.00 Build 0)  -->
<svg version="1.1" id="Capa_1" xmlns="http://www.w3.org/2000/svg" xmlns:xlink="http://www.w3.org/1999/xlink" x="0px" y="0px"
	 viewBox="0 0 300 300" style="enable-background:new 0 0 300 300;" xml:space="preserve">
<style type="text/css">
	.st0{fill:#A7927D;}
	.st1{fill:none;stroke:#A7927D;stroke-width:2;stroke-miterlimit:10;}
</style>
<g>
	<g>
		<path class="st0" d="M149.7,286.3c-75.2,0-136.3-61.1-136.3-136.3c0-75.2,61.1-136.3,136.3-136.3S286,74.8,286,150
			C286,225.2,224.8,286.3,149.7,286.3z M149.7,16c-73.9,0-134,60.1-134,134c0,73.9,60.1,134,134,134c73.9,0,134-60.1,134-134
			C283.6,76.1,223.5,16,149.7,16z"/>
	</g>
	<g>
		<path class="st0" d="M29.6,148.1c-0.6,0-1.2-0.5-1.2-1.2c0-65.3,53.2-118.5,118.5-118.5c0.6,0,1.2,0.5,1.2,1.2
			c0,0.6-0.5,1.2-1.2,1.2c-64.1,0-116.2,52.1-116.2,116.2C30.7,147.6,30.2,148.1,29.6,148.1z"/>
	</g>
	<g>
		<path class="st0" d="M149.7,300c-82.7,0-150-67.3-150-150S66.9,0,149.7,0c82.7,0,150,67.3,150,150S232.4,300,149.7,300z
			 M149.7,2.3C68.2,2.3,2,68.6,2,150s66.2,147.7,147.7,147.7S297.3,231.4,297.3,150S231.1,2.3,149.7,2.3z"/>
	</g>
</g>
<g>
	<g>
		<path class="st1" d="M232.7,108.2h-35.5c-1.5,0-2.7,1.2-2.7,2.7c0,1.5,1.2,2.7,2.7,2.7h35.5c9.6,0,17.8,15,17.8,32.8
			s-8.1,32.8-17.8,32.8H181c7.9-7.9,11.1-21.4,11.1-32.8c0-11.3-3.2-24.9-11.1-32.8h4.7c1.5,0,2.7-1.2,2.7-2.7
			c0-1.5-1.2-2.7-2.7-2.7h-16.8c-15.9,0-23.3,22.2-23.3,38.3c0,16.3,7.5,38.3,23.3,38.3h63.9c15.8,0,23.3-22.1,23.3-38.3
			C256,130.2,248.5,108.2,232.7,108.2z M151.1,146.5c0-17.8,8.1-32.8,17.8-32.8s17.8,15,17.8,32.8s-8.1,32.8-17.8,32.8
			S151.1,164.3,151.1,146.5z"/>
		<path class="st1" d="M141.9,173.4c2-1.6,3.2-3.5,3.2-5.7v-14.8c0,0,0,0,0,0c0-9-19.8-13.1-38.3-13.1c-7.2,0-14.1,0.6-20.1,1.8
			c-1.5,0.3-2.5,1.7-2.2,3.2c0.3,1.5,1.7,2.5,3.2,2.2c5.6-1.1,12.2-1.7,19.1-1.7c9.2,0,17.9,1,24.3,2.9c7,2,8.4,4.2,8.4,4.7
			c0,0.5-1.4,2.6-8.4,4.7c-6.5,1.9-15.1,2.9-24.3,2.9s-17.9-1-24.3-2.9c-7-2-8.4-4.2-8.4-4.7c0-0.3,0.6-1.4,3.2-2.7
			c1.4-0.7,1.9-2.3,1.2-3.7c-0.7-1.4-2.3-1.9-3.7-1.2c-4.2,2.1-6.3,4.7-6.3,7.6v14.8c0,4,3.9,7,9.8,9.1c-2.1,1.7-3.1,3.6-3.1,5.7
			v14.8c0,9,19.8,13.1,38.3,13.1s38.3-4.1,38.3-13.1v-14.8C151.7,178.8,148.3,175.7,141.9,173.4z M74,167.7v-7.6
			c7.2,4,20.3,5.9,32.8,5.9s25.6-1.9,32.8-5.9v7.6c0,1.7-6.1,4-8.4,4.7c-6.5,1.9-15.1,2.9-24.3,2.9C88,175.3,74,170.7,74,167.7z
			 M137.8,202c-6.5,1.9-15.1,2.9-24.3,2.9c-20.4,0-32.8-5.1-32.8-7.6v-7.6c7.2,4,20.3,5.9,32.8,5.9c5.2,0,10.2-0.3,15-0.9
			c1.5-0.2,2.6-1.6,2.4-3.1c-0.2-1.5-1.6-2.6-3.1-2.4c-4.5,0.6-9.3,0.9-14.3,0.9c-9.2,0-17.9-1-24.3-2.9c-7-2-8.4-4.2-8.4-4.7
			c0-0.4,1-1.9,5.2-3.6c6.3,1.3,13.7,1.9,20.9,1.9c10,0,20.5-1.2,27.9-3.8c8.6,2,11.5,4.6,11.5,5.5c0,0.7-1.8,2.6-7.5,4.4
			c-1.4,0.5-2.2,2-1.8,3.4c0.4,1.2,1.5,1.9,2.6,1.9c1.2,0,5.1-1.7,6.7-2.5v7.6C146.2,197.8,144.8,199.9,137.8,202z"/>
		<path class="st1" d="M170.6,129.1c0.5,1.4,2.1,2.2,3.5,1.6c1.4-0.5,2.2-2.1,1.6-3.5l-1.4-3.9c-0.5-1.4-2.1-2.2-3.5-1.6
			c-1.4,0.5-2.2,2.1-1.6,3.5L170.6,129.1z"/>
		<path class="st1" d="M166.1,143.9l-3.6-2c-1.3-0.7-3-0.3-3.7,1.1s-0.3,3,1.1,3.7l3.6,2c1.3,0.7,3,0.3,3.7-1.1
			C167.9,146.3,167.4,144.6,166.1,143.9z"/>
		<path class="st1" d="M172.4,165.2l2.8-3c1-1.1,1-2.8-0.1-3.9c-1.1-1-2.8-1-3.9,0.1l-2.8,3c-1,1.1-1,2.8,0.1,3.9
			C169.6,166.4,171.3,166.3,172.4,165.2z"/>
		<path class="st1" d="M96.9,154.3c0.1,0,0.1,0,0.2,0c1.4,0,2.6-1.1,2.7-2.5c0.1-1.5-1-2.8-2.5-2.9l-4.1-0.3c-1.5-0.1-2.8,1-2.9,2.5
			c-0.1,1.5,1,2.8,2.5,2.9L96.9,154.3z"/>
		<path class="st1" d="M113.7,156.4l3.4-1c1.5-0.4,2.3-1.9,1.9-3.4c-0.4-1.5-1.9-2.3-3.4-1.9l-3.4,1c-1.5,0.4-2.3,1.9-1.9,3.4
			C110.8,155.9,112.3,156.8,113.7,156.4z"/>
	</g>
</g>
</svg>
